%YAML 1.1
%TAG !u! tag:unity3d.com,2011:
--- !u!1045 &1
EditorBuildSettings:
  m_ObjectHideFlags: 0
  serializedVersion: 2
  m_Scenes:
  - enabled: 0
    path: 
    guid: 00000000000000000000000000000000
  - enabled: 1
    path: Assets/Scenes/RingRing.unity
    guid: d9f318c9c945b3d48a9ab57232a64944
  - enabled: 1
    path: Assets/Scenes/OpeningScene.unity
    guid: 0ea611891109692469afdd6d3bb652a2
  - enabled: 1
    path: Assets/Scenes/HouseScene.unity
    guid: fbca47608dd31445d901f15b56886a0b
  - enabled: 1
    path: Assets/Scenes/WInScene.unity
    guid: 4e61457c9506ca54c8a35ebcdf935baf
  - enabled: 1
    path: Assets/Scenes/GameOverScene.unity
    guid: d8ba07d410b55449c9d9e771b502f4fe
  m_configObjects: {}
